{
  "meta": {
    "from": 6,
    "to": 10,
    "current_page": 2,
    "last_page": 3,
    "per_page": 5,
    "total_rows": 15
  },
  "data": [
    {
      "no": 6,
      "name": "Rosales Holder",
      "gender": "male",
      "age": 22,
      "phone": "+1 (981) 421-3728",
      "address": "325 Monroe Street, Bartley, Montana, 3271",
      "company": "COMTOUR",
      "email": "rosalesholder@comtour.com"
    },
    {
      "no": 7,
      "name": "Janie Lancaster",
      "gender": "female",
      "age": 36,
      "phone": "+1 (987) 526-2978",
      "address": "971 Beard Street, Volta, Palau, 3196",
      "company": "MANUFACT",
      "email": "janielancaster@manufact.com"
    },
    {
      "no": 8,
      "name": "Claudia Sargent",
      "gender": "female",
      "age": 37,
      "phone": "+1 (874) 495-3348",
      "address": "889 Bedell Lane, Blackgum, West Virginia, 4490",
      "company": "DIGIGEN",
      "email": "claudiasargent@digigen.com"
    },
    {
      "no": 9,
      "name": "Lynn Sellers",
      "gender": "male",
      "age": 37,
      "phone": "+1 (998) 473-3035",
      "address": "749 Brightwater Avenue, Sparkill, Michigan, 4542",
      "company": "BUZZMAKER",
      "email": "lynnsellers@buzzmaker.com"
    },
    {
      "no": 10,
      "name": "Duncan Weaver",
      "gender": "male",
      "age": 34,
      "phone": "+1 (807) 513-2587",
      "address": "103 Gem Street, Sylvanite, Arkansas, 1778",
      "company": "SKINSERVE",
      "email": "duncanweaver@skinserve.com"
    }
  ]
}