{
  "meta": {
    "from": 1,
    "to": 5,
    "current_page": 1,
    "last_page": 3,
    "per_page": 5,
    "total_rows": 15
  },
  "data": [
    {
      "no": 1,
      "name": "Peters Suarez",
      "gender": "male",
      "age": 40,
      "phone": "+1 (887) 464-2619",
      "address": "347 Poplar Avenue, Yettem, Iowa, 7952",
      "company": "COMDOM",
      "email": "peterssuarez@comdom.com"
    },
    {
      "no": 2,
      "name": "Cecilia Moss",
      "gender": "female",
      "age": 37,
      "phone": "+1 (993) 448-3558",
      "address": "141 Fanchon Place, Balm, South Carolina, 2706",
      "company": "VIASIA",
      "email": "ceciliamoss@viasia.com"
    },
    {
      "no": 3,
      "name": "Carissa Hoover",
      "gender": "female",
      "age": 28,
      "phone": "+1 (854) 533-2459",
      "address": "603 Radde Place, Cavalero, Federated States Of Micronesia, 2961",
      "company": "MUSIX",
      "email": "carissahoover@musix.com"
    },
    {
      "no": 4,
      "name": "Cathleen Wells",
      "gender": "female",
      "age": 39,
      "phone": "+1 (959) 510-3025",
      "address": "413 Albemarle Terrace, Wakarusa, Indiana, 2678",
      "company": "ENTOGROK",
      "email": "cathleenwells@entogrok.com"
    },
    {
      "no": 5,
      "name": "Brooke Stanley",
      "gender": "female",
      "age": 39,
      "phone": "+1 (884) 454-3955",
      "address": "381 Hamilton Walk, Clay, Kansas, 9383",
      "company": "ZENTILITY",
      "email": "brookestanley@zentility.com"
    }
  ]
}