{
  "meta": {
    "from": 11,
    "to": 15,
    "current_page": 3,
    "last_page": 3,
    "per_page": 5,
    "total_rows": 15
  },
  "data": [
    {
      "no": 11,
      "name": "Frances Raymond",
      "gender": "female",
      "age": 40,
      "phone": "+1 (926) 515-3946",
      "address": "449 Kimball Street, Monument, District Of Columbia, 124",
      "company": "FARMEX",
      "email": "francesraymond@farmex.com"
    },
    {
      "no": 12,
      "name": "Sexton Munoz",
      "gender": "male",
      "age": 40,
      "phone": "+1 (954) 504-3993",
      "address": "935 Grace Court, Connerton, Utah, 195",
      "company": "STREZZO",
      "email": "sextonmunoz@strezzo.com"
    },
    {
      "no": 13,
      "name": "Deidre Carey",
      "gender": "female",
      "age": 24,
      "phone": "+1 (920) 425-3978",
      "address": "278 Herbert Street, Caberfae, Alaska, 2146",
      "company": "ZYTRAX",
      "email": "deidrecarey@zytrax.com"
    },
    {
      "no": 14,
      "name": "Kidd Salazar",
      "gender": "male",
      "age": 39,
      "phone": "+1 (846) 441-2633",
      "address": "840 Green Street, Murillo, South Dakota, 119",
      "company": "ARCHITAX",
      "email": "kiddsalazar@architax.com"
    },
    {
      "no": 15,
      "name": "Conner Melton",
      "gender": "male",
      "age": 22,
      "phone": "+1 (980) 523-2441",
      "address": "179 Fleet Street, Weeksville, Alabama, 5383",
      "company": "DEEPENDS",
      "email": "connermelton@deepends.com"
    }
  ]
}